<svg xmlns="http://www.w3.org/2000/svg" xmlns:xlink="http://www.w3.org/1999/xlink" width="12.989" height="13" viewBox="0 0 12.989 13">
    <defs>
        <clipPath id="clip-path">
            <rect width="12.989" height="13" fill="none"/>
        </clipPath>
    </defs>
    <g id="ic-user" clip-path="url(#clip-path)">
        <g id="Ellipse_13" data-name="Ellipse 13" transform="translate(2.96)" fill="none" stroke="#ffffff" stroke-width="1">
            <circle cx="3.5" cy="3.5" r="3.5" stroke="none"/>
            <circle cx="3.5" cy="3.5" r="3" fill="none"/>
        </g>
        <path id="Path_11" data-name="Path 11" d="M1119,18.471c0-4.4,2.932-4.471,5.994-4.471s5.995.128,5.995,4.471" transform="translate(-1118.5 -5.471)" fill="none" stroke="#ffffff" stroke-linecap="round" stroke-width="1"/>
    </g>
</svg>